No.,Product
1,3
2,2
3,2
4,4
5,2
6,3
7,3
8,3
9,3
10,4
11,3
12,2
13,1
14,2
15,3
16,3
17,1
18,2
19,2
20,2
21,2
22,2
23,1
24,3
25,4
26,3
27,1
28,1
29,4
30,3
31,3
32,2
33,1
34,1
35,3
36,1
37,3
38,4
39,3
40,1
41,1
42,4
43,4
44,3
45,4
46,1
47,3
48,3
49,1
50,3
51,4
52,3
53,3
54,2
55,3
56,3
57,2
58,2
59,4
60,4
61,4
62,2
63,3
64,3
65,1
66,2
67,4
68,3
69,4
70,2
71,2
72,2
73,4
74,2
75,1
76,3
77,4
78,2
79,2
80,1
81,2
82,3
83,3
84,4
85,2
86,2
87,1
88,3
89,1
90,2
91,1
92,3
93,2
94,2
95,3
96,2
97,1
98,2
99,2
100,3
